onto2022 for Bioc 2022 • onto2022
…
efo$name["EFO:0007789"]

##                        EFO:0007789 
## "BMI-adjusted waist circumference"

ieugwasr

The Bristol Integrative Epidemiology Unit curates a large collection of summary statistics for many GWAS.

library(ieugwasr)
gi = gwasinfo()
gi

## # A tibble: 42,334 × 22
##    id         trait note  group…¹    mr  year author sex      pmid popul…² unit 
##    <chr>      <chr> <chr> <chr>   <int> <int> <chr>  <chr>   <int> <chr>   <chr>
##  1 ieu-b-5075 Syst… NA    public      1  2021 Sakau… Male…  3.46e7 East A… mmHg 
##  2 ieu-b-5064 Seps… HES … public     NA  2021 Hamil… Male… NA      Europe… logOR
##  3 eqtl-a-EN… ENSG… NA    public      1  2018 Vosa U Male… NA      Europe… NA   
##  4 ukb-b-1489 Chee… 1408… public      1  2018 Ben E… Male… NA      Europe… SD   
##  5 ukb-b-8727 Age … 2764… public      1  2018 Ben E… Male… NA      Europe… SD   
##  6 ukb-a-583  Diag… NA    public      1  2017 Neale  Male… NA      Europe… SD   
##  7 eqtl-a-EN… ENSG… NA    public      1  2018 Vosa U Male… NA      Europe… NA   
##  8 ukb-b-124… Trea… 2000… public      1  2018 Ben E… Male… NA      Europe… SD   
##  9 ukb-e-767… Leng… NA    public      1  2020 Pan-U… Male… NA      East A… NA   
## 10 eqtl-a-EN… ENSG… NA    public      1  2018 Vosa U Male… NA      Europe… NA   
## # … with 42,324 more rows, 11 more variables: sample_size <int>, nsnp <int>,
## #   build <chr>, category <chr>, subcategory <chr>, ontology <chr>,
## #   ncase <int>, consortium <chr>, ncontrol <int>, priority <int>, sd <dbl>,
## #   and abbreviated variable names ¹​group_name, ²​population
## # ℹ Use `print(n = ...)` to see more rows, and `colnames()` to see all variable names
…
